T 500000

0: 4 . 2
2: 15
2: 8
11
6: 15
6: 8

8: 4 . 2
10: 15
10: 8
11
14: 15
14: 8

16: 15 . 1
16: 4 . 2
17: 16 . 1
18: 15 . 2
18: 8
18: 18 . 1
19: 20 . 2
20: 11 . 2
21: 18 . 2
22: 15
22: 8
23: 18 . 2

24: 4 . 2
24: 16 . 2
26: 15
26: 8
11
30: 15
30: 8

0 . 6



